com\dariocosta\beansexercise4\JFrameTest.class
com\dariocosta\beansexercise4\JFrameTest$1.class
com\dariocosta\beansexercise4\CustomTextField$1.class
com\dariocosta\beansexercise4\JFrameTest$2.class
com\dariocosta\beansexercise4\CustomTextField.class
