C:\Users\Darius\Desktop\school\DI\ExerciseBeans3\src\main\java\com\dariocosta\exercisebeans\ColorProperty.java
C:\Users\Darius\Desktop\school\DI\ExerciseBeans3\src\main\java\com\dariocosta\exercisebeans\CustomButtonBeanInfo.java
C:\Users\Darius\Desktop\school\DI\ExerciseBeans3\src\main\java\com\dariocosta\exercisebeans\ColorPropertyEditorSupport.java
C:\Users\Darius\Desktop\school\DI\ExerciseBeans3\src\main\java\com\dariocosta\exercisebeans\TestFrame.java
C:\Users\Darius\Desktop\school\DI\ExerciseBeans3\src\main\java\com\dariocosta\exercisebeans\ColorPropertyPanel.java
C:\Users\Darius\Desktop\school\DI\ExerciseBeans3\src\main\java\com\dariocosta\exercisebeans\CustomButton.java
