C:\Users\Darius\Desktop\school\DI\XestionClientes\src\main\java\xestionclientes\dto\Cliente.java
C:\Users\Darius\Desktop\school\DI\XestionClientes\src\main\java\xestionclientes\loxica\LoxicaNegocio.java
C:\Users\Darius\Desktop\school\DI\XestionClientes\src\main\java\xestionclientes\gui\PantallaPrincipal.java
C:\Users\Darius\Desktop\school\DI\XestionClientes\src\main\java\xestionclientes\gui\DialogoAlta.java
